EESchema Schematic File Version 4
EELAYER 30 0
EELAYER END
$Descr A4 11693 8268
encoding utf-8
Sheet 1 1
Title "Sanitizer_dispenser"
Date "2020-06-11"
Rev "F2"
Comp ""
Comment1 ""
Comment2 ""
Comment3 ""
Comment4 ""
$EndDescr
$Comp
L MCU_Microchip_ATtiny:ATtiny13A-SSU U3
U 1 1 5EA90BA5
P 5550 3850
F 0 "U3" H 5850 4500 50  0000 R CNN
F 1 "ATtiny13A-SSU" H 6200 4400 50  0000 R CNN
F 2 "Package_SO:SOIC-8_3.9x4.9mm_P1.27mm" H 5550 3850 50  0001 C CIN
F 3 "http://ww1.microchip.com/downloads/en/DeviceDoc/doc8126.pdf" H 5550 3850 50  0001 C CNN
	1    5550 3850
	1    0    0    -1  
$EndComp
$Comp
L Device:C C13
U 1 1 5EABBA57
P 5300 3100
F 0 "C13" V 5048 3100 50  0000 C CNN
F 1 "100n" V 5139 3100 50  0000 C CNN
F 2 "Capacitor_SMD:C_0805_2012Metric" H 5338 2950 50  0001 C CNN
F 3 "~" H 5300 3100 50  0001 C CNN
	1    5300 3100
	0    1    1    0   
$EndComp
$Comp
L power:GND #PWR028
U 1 1 5EABC462
P 5550 4500
F 0 "#PWR028" H 5550 4250 50  0001 C CNN
F 1 "GND" H 5555 4327 50  0000 C CNN
F 2 "" H 5550 4500 50  0001 C CNN
F 3 "" H 5550 4500 50  0001 C CNN
	1    5550 4500
	1    0    0    -1  
$EndComp
$Comp
L power:GND #PWR026
U 1 1 5EABC8C8
P 5050 3100
F 0 "#PWR026" H 5050 2850 50  0001 C CNN
F 1 "GND" H 5055 2927 50  0000 C CNN
F 2 "" H 5050 3100 50  0001 C CNN
F 3 "" H 5050 3100 50  0001 C CNN
	1    5050 3100
	1    0    0    -1  
$EndComp
Wire Wire Line
	5150 3100 5050 3100
Wire Wire Line
	5450 3100 5550 3100
Wire Wire Line
	5550 3100 5550 3250
$Comp
L power:GND #PWR08
U 1 1 5EB10324
P 3875 5725
F 0 "#PWR08" H 3875 5475 50  0001 C CNN
F 1 "GND" H 3880 5552 50  0000 C CNN
F 2 "" H 3875 5725 50  0001 C CNN
F 3 "" H 3875 5725 50  0001 C CNN
	1    3875 5725
	1    0    0    -1  
$EndComp
$Comp
L Device:D D7
U 1 1 5EB50521
P 9800 1550
F 0 "D7" V 9754 1629 50  0000 L CNN
F 1 "M7" V 9845 1629 50  0000 L CNN
F 2 "Diode_SMD:D_SMA" H 9800 1550 50  0001 C CNN
F 3 "~" H 9800 1550 50  0001 C CNN
	1    9800 1550
	0    1    1    0   
$EndComp
Wire Wire Line
	10050 1600 10050 1700
Wire Wire Line
	10050 1500 10050 1400
Wire Wire Line
	10050 1400 9800 1400
Connection ~ 9800 1700
Connection ~ 9800 1400
$Comp
L Device:R R14
U 1 1 5EB71767
P 9200 2100
F 0 "R14" V 9100 2100 50  0000 C CNN
F 1 "150" V 9200 2100 50  0000 C CNN
F 2 "Resistor_SMD:R_0805_2012Metric" V 9130 2100 50  0001 C CNN
F 3 "~" H 9200 2100 50  0001 C CNN
	1    9200 2100
	0    1    1    0   
$EndComp
Text GLabel 8950 2100 0    50   Input ~ 0
FET_M_PUMP
Text GLabel 4025 5575 2    50   Input ~ 0
POT_Duration
Text GLabel 1125 7125 0    50   Input ~ 0
Prox_PWR
$Comp
L Device:C C14
U 1 1 5EBE6FEE
P 6250 4200
F 0 "C14" H 6365 4246 50  0000 L CNN
F 1 "100n" H 6365 4155 50  0000 L CNN
F 2 "Capacitor_SMD:C_0805_2012Metric" H 6288 4050 50  0001 C CNN
F 3 "~" H 6250 4200 50  0001 C CNN
	1    6250 4200
	1    0    0    -1  
$EndComp
$Comp
L power:GND #PWR029
U 1 1 5EBECF7B
P 6250 4350
F 0 "#PWR029" H 6250 4100 50  0001 C CNN
F 1 "GND" H 6255 4177 50  0000 C CNN
F 2 "" H 6250 4350 50  0001 C CNN
F 3 "" H 6250 4350 50  0001 C CNN
	1    6250 4350
	1    0    0    -1  
$EndComp
Text Label 6400 3750 0    50   ~ 0
PROG_SCK
Text Label 6400 3650 0    50   ~ 0
PROG_MISO
Text Label 6400 3550 0    50   ~ 0
PROG_MOSI
Text Label 6900 4100 0    50   ~ 0
PROG_RST
Wire Wire Line
	6150 3750 6900 3750
Wire Wire Line
	6375 3850 6150 3850
Text GLabel 6375 3850 2    50   Input ~ 0
Prox_PWR
Wire Wire Line
	10300 1700 10050 1700
Connection ~ 10050 1700
Wire Wire Line
	9500 2400 9500 2100
Text GLabel 7325 3650 2    50   Input ~ 0
Sensor
Wire Wire Line
	6150 4050 6250 4050
$Comp
L power:GND #PWR022
U 1 1 5F8306C7
P 7000 5650
F 0 "#PWR022" H 7000 5400 50  0001 C CNN
F 1 "GND" H 7005 5477 50  0000 C CNN
F 2 "" H 7000 5650 50  0001 C CNN
F 3 "" H 7000 5650 50  0001 C CNN
	1    7000 5650
	1    0    0    -1  
$EndComp
Connection ~ 6250 4050
Wire Wire Line
	8950 2100 9050 2100
Wire Wire Line
	3850 5400 3875 5400
Text GLabel 5650 3050 2    50   Input ~ 0
Vin_MCU
Wire Wire Line
	5650 3050 5550 3050
Wire Wire Line
	5550 3050 5550 3100
Connection ~ 5550 3100
$Comp
L power:+5V #PWR012
U 1 1 5EA84AB8
P 2525 4050
F 0 "#PWR012" H 2525 3900 50  0001 C CNN
F 1 "+5V" H 2540 4223 50  0000 C CNN
F 2 "" H 2525 4050 50  0001 C CNN
F 3 "" H 2525 4050 50  0001 C CNN
	1    2525 4050
	1    0    0    -1  
$EndComp
Wire Wire Line
	9350 2100 9500 2100
$Comp
L Device:R R10
U 1 1 5F76783B
P 6750 4200
F 0 "R10" V 6650 4200 50  0000 C CNN
F 1 "100k" V 6750 4200 50  0000 C CNN
F 2 "Resistor_SMD:R_0805_2012Metric" V 6680 4200 50  0001 C CNN
F 3 "~" H 6750 4200 50  0001 C CNN
	1    6750 4200
	0    1    1    0   
$EndComp
Wire Wire Line
	6850 4050 6850 4100
Wire Wire Line
	6850 4100 6900 4100
Text GLabel 6900 4200 2    50   Input ~ 0
Vin_MCU
Wire Wire Line
	6250 4050 6550 4050
Wire Wire Line
	6600 4200 6550 4200
Wire Wire Line
	6550 4200 6550 4050
Connection ~ 6550 4050
Wire Wire Line
	6550 4050 6850 4050
Wire Wire Line
	10050 1700 9800 1700
Text GLabel 9450 3100 0    50   Input ~ 0
DC_in
Wire Wire Line
	9450 3100 9550 3100
$Comp
L power:GND #PWR030
U 1 1 5FA7F197
P 9400 3200
F 0 "#PWR030" H 9400 2950 50  0001 C CNN
F 1 "GND" H 9405 3027 50  0000 C CNN
F 2 "" H 9400 3200 50  0001 C CNN
F 3 "" H 9400 3200 50  0001 C CNN
	1    9400 3200
	1    0    0    -1  
$EndComp
Wire Wire Line
	9400 3200 9550 3200
Wire Wire Line
	9550 3300 9550 3200
Text GLabel 10050 1600 2    50   Input ~ 0
M-
Text GLabel 10050 1500 2    50   Input ~ 0
M+
Text GLabel 9525 3625 0    50   Input ~ 0
M+
Text GLabel 9525 3525 0    50   Input ~ 0
M-
Text GLabel 3375 1825 0    50   Input ~ 0
LED
$Comp
L power:GND #PWR020
U 1 1 5FE95358
P 4225 1825
F 0 "#PWR020" H 4225 1575 50  0001 C CNN
F 1 "GND" H 4230 1652 50  0000 C CNN
F 2 "" H 4225 1825 50  0001 C CNN
F 3 "" H 4225 1825 50  0001 C CNN
	1    4225 1825
	1    0    0    -1  
$EndComp
Wire Wire Line
	5550 4450 5550 4500
Wire Wire Line
	5550 4500 5300 4500
Connection ~ 5550 4500
Text GLabel 3850 5400 0    50   Input ~ 0
Vin_MCU
$Comp
L power:GND #PWR018
U 1 1 6058E4EF
P 5950 7200
F 0 "#PWR018" H 5950 6950 50  0001 C CNN
F 1 "GND" H 5955 7027 50  0000 C CNN
F 2 "" H 5950 7200 50  0001 C CNN
F 3 "" H 5950 7200 50  0001 C CNN
	1    5950 7200
	1    0    0    -1  
$EndComp
$Comp
L power:GND #PWR017
U 1 1 6058E033
P 5750 7200
F 0 "#PWR017" H 5750 6950 50  0001 C CNN
F 1 "GND" H 5755 7027 50  0000 C CNN
F 2 "" H 5750 7200 50  0001 C CNN
F 3 "" H 5750 7200 50  0001 C CNN
	1    5750 7200
	1    0    0    -1  
$EndComp
$Comp
L power:GND #PWR014
U 1 1 6058DB88
P 5550 7200
F 0 "#PWR014" H 5550 6950 50  0001 C CNN
F 1 "GND" H 5555 7027 50  0000 C CNN
F 2 "" H 5550 7200 50  0001 C CNN
F 3 "" H 5550 7200 50  0001 C CNN
	1    5550 7200
	1    0    0    -1  
$EndComp
$Comp
L power:GND #PWR013
U 1 1 6058D460
P 5350 7200
F 0 "#PWR013" H 5350 6950 50  0001 C CNN
F 1 "GND" H 5355 7027 50  0000 C CNN
F 2 "" H 5350 7200 50  0001 C CNN
F 3 "" H 5350 7200 50  0001 C CNN
	1    5350 7200
	1    0    0    -1  
$EndComp
$Comp
L Mechanical:MountingHole_Pad H4
U 1 1 6058CA87
P 5950 7100
F 0 "H4" H 5900 7300 50  0000 L CNN
F 1 "MountingHole_Pad" H 6050 7550 50  0001 L CNN
F 2 "MountingHole:MountingHole_3.2mm_M3_Pad_Via" H 5950 7100 50  0001 C CNN
F 3 "~" H 5950 7100 50  0001 C CNN
	1    5950 7100
	1    0    0    -1  
$EndComp
$Comp
L Mechanical:MountingHole_Pad H3
U 1 1 6058C523
P 5750 7100
F 0 "H3" H 5700 7300 50  0000 L CNN
F 1 "MountingHole_Pad" H 5400 7800 50  0001 L CNN
F 2 "MountingHole:MountingHole_3.2mm_M3_Pad_Via" H 5750 7100 50  0001 C CNN
F 3 "~" H 5750 7100 50  0001 C CNN
	1    5750 7100
	1    0    0    -1  
$EndComp
$Comp
L Mechanical:MountingHole_Pad H2
U 1 1 6058C0B4
P 5550 7100
F 0 "H2" H 5500 7300 50  0000 L CNN
F 1 "MountingHole_Pad" H 5200 7500 50  0001 L CNN
F 2 "MountingHole:MountingHole_3.2mm_M3_Pad_Via" H 5550 7100 50  0001 C CNN
F 3 "~" H 5550 7100 50  0001 C CNN
	1    5550 7100
	1    0    0    -1  
$EndComp
$Comp
L Mechanical:MountingHole_Pad H1
U 1 1 60587FB1
P 5350 7100
F 0 "H1" H 5300 7300 50  0000 L CNN
F 1 "MountingHole_Pad" H 5000 7350 50  0001 L CNN
F 2 "MountingHole:MountingHole_3.2mm_M3_Pad_Via" H 5350 7100 50  0001 C CNN
F 3 "~" H 5350 7100 50  0001 C CNN
	1    5350 7100
	1    0    0    -1  
$EndComp
Wire Wire Line
	4850 2375 5300 2375
Wire Wire Line
	4850 2475 5300 2475
Wire Wire Line
	4850 2275 5300 2275
Wire Wire Line
	6050 2475 6050 2525
Wire Wire Line
	5800 2475 6050 2475
Wire Wire Line
	6050 2275 5800 2275
Wire Wire Line
	6050 2225 6050 2275
Text Label 5800 2375 0    50   ~ 0
PROG_MOSI
$Comp
L power:GND #PWR024
U 1 1 5EAD9271
P 6050 2525
F 0 "#PWR024" H 6050 2275 50  0001 C CNN
F 1 "GND" H 6055 2352 50  0000 C CNN
F 2 "" H 6050 2525 50  0001 C CNN
F 3 "" H 6050 2525 50  0001 C CNN
	1    6050 2525
	1    0    0    -1  
$EndComp
$Comp
L power:+5V #PWR023
U 1 1 5EACB4CA
P 6050 2225
F 0 "#PWR023" H 6050 2075 50  0001 C CNN
F 1 "+5V" H 6065 2398 50  0000 C CNN
F 2 "" H 6050 2225 50  0001 C CNN
F 3 "" H 6050 2225 50  0001 C CNN
	1    6050 2225
	1    0    0    -1  
$EndComp
Text Label 4850 2275 0    50   ~ 0
PROG_MISO
Text Label 4850 2375 0    50   ~ 0
PROG_SCK
Text Label 4850 2475 0    50   ~ 0
PROG_RST
$Comp
L Connector_Generic:Conn_02x03_Odd_Even J1
U 1 1 5EAC1048
P 5500 2375
F 0 "J1" H 5550 2692 50  0000 C CNN
F 1 "ICSP" H 5550 2601 50  0000 C CNN
F 2 "Connector_PinHeader_2.54mm:PinHeader_2x03_P2.54mm_Vertical" H 5500 2375 50  0001 C CNN
F 3 "~" H 5500 2375 50  0001 C CNN
	1    5500 2375
	1    0    0    -1  
$EndComp
Wire Wire Line
	4225 1275 4075 1275
$Comp
L power:GND #PWR019
U 1 1 5EA61330
P 4225 1275
F 0 "#PWR019" H 4225 1025 50  0001 C CNN
F 1 "GND" H 4230 1102 50  0000 C CNN
F 2 "" H 4225 1275 50  0001 C CNN
F 3 "" H 4225 1275 50  0001 C CNN
	1    4225 1275
	1    0    0    -1  
$EndComp
Text Notes 10400 2300 0    50   ~ 0
TO-252/DPAK\ndefault option
Text Notes 10150 1450 0    50   ~ 0
PWMed 12VDC
$Comp
L power:+5V #PWR016
U 1 1 5F3FA440
P 3375 2875
F 0 "#PWR016" H 3375 2725 50  0001 C CNN
F 1 "+5V" H 3390 3048 50  0000 C CNN
F 2 "" H 3375 2875 50  0001 C CNN
F 3 "" H 3375 2875 50  0001 C CNN
	1    3375 2875
	1    0    0    -1  
$EndComp
$Comp
L Device:R R6
U 1 1 5F3FCAB6
P 3625 2875
F 0 "R6" V 3525 2875 50  0000 C CNN
F 1 "100k" V 3625 2875 50  0000 C CNN
F 2 "Resistor_SMD:R_0805_2012Metric" V 3555 2875 50  0001 C CNN
F 3 "~" H 3625 2875 50  0001 C CNN
	1    3625 2875
	0    1    1    0   
$EndComp
$Comp
L Device:LED D6
U 1 1 5F38E757
P 3925 2875
F 0 "D6" H 3925 2775 50  0000 C CNN
F 1 "green" H 3925 2675 50  0000 C CNN
F 2 "Diode_SMD:D_0805_2012Metric" H 3925 2875 50  0001 C CNN
F 3 "~" H 3925 2875 50  0001 C CNN
	1    3925 2875
	-1   0    0    1   
$EndComp
Connection ~ 9500 2100
Wire Wire Line
	9500 2100 9500 1900
$Comp
L Device:Q_NMOS_GSD Q3
U 1 1 5EB5BF07
P 9700 1900
F 0 "Q3" H 9905 1946 50  0000 L CNN
F 1 "AO3400A" H 9905 1855 50  0000 L CNN
F 2 "Package_TO_SOT_SMD:SOT-23" H 9900 2000 50  0001 C CNN
F 3 "~" H 9700 1900 50  0001 C CNN
	1    9700 1900
	1    0    0    -1  
$EndComp
Text Notes 9900 2050 0    50   ~ 0
SOT-23
$Comp
L power:GND #PWR036
U 1 1 5EB6343B
P 9800 2100
F 0 "#PWR036" H 9800 1850 50  0001 C CNN
F 1 "GND" H 9805 1927 50  0000 C CNN
F 2 "" H 9800 2100 50  0001 C CNN
F 3 "" H 9800 2100 50  0001 C CNN
	1    9800 2100
	1    0    0    -1  
$EndComp
$Comp
L Device:Q_NMOS_GDS Q4
U 1 1 5EA6A42D
P 10200 2400
F 0 "Q4" H 10404 2446 50  0000 L CNN
F 1 "IRLR024NPbF" H 10404 2355 50  0000 L CNN
F 2 "Package_TO_SOT_SMD:TO-252-2" H 10400 2500 50  0001 C CNN
F 3 "~" H 10200 2400 50  0001 C CNN
	1    10200 2400
	1    0    0    -1  
$EndComp
$Comp
L power:GND #PWR038
U 1 1 5EA96542
P 10300 2600
F 0 "#PWR038" H 10300 2350 50  0001 C CNN
F 1 "GND" H 10305 2427 50  0000 C CNN
F 2 "" H 10300 2600 50  0001 C CNN
F 3 "" H 10300 2600 50  0001 C CNN
	1    10300 2600
	1    0    0    -1  
$EndComp
Wire Wire Line
	10000 2400 9500 2400
Wire Wire Line
	9650 1700 9800 1700
Wire Wire Line
	9650 1700 9650 1800
Wire Wire Line
	9650 1800 9550 1800
Wire Wire Line
	9550 1400 9800 1400
Wire Wire Line
	9450 1400 9550 1400
Connection ~ 9550 1400
Wire Wire Line
	9550 1550 9550 1400
$Comp
L Device:C C17
U 1 1 5F4E53C2
P 9400 1800
F 0 "C17" V 9450 1600 50  0000 L CNN
F 1 "100n" V 9550 1700 50  0000 L CNN
F 2 "Capacitor_SMD:C_0805_2012Metric" H 9438 1650 50  0001 C CNN
F 3 "~" H 9400 1800 50  0001 C CNN
	1    9400 1800
	0    -1   -1   0   
$EndComp
$Comp
L Device:C C16
U 1 1 5F478D4F
P 9300 1400
F 0 "C16" V 9350 1200 50  0000 L CNN
F 1 "10uF" V 9450 1300 50  0000 L CNN
F 2 "Capacitor_SMD:C_0805_2012Metric" H 9338 1250 50  0001 C CNN
F 3 "~" H 9300 1400 50  0001 C CNN
	1    9300 1400
	0    -1   -1   0   
$EndComp
Wire Wire Line
	8750 1400 8850 1400
$Comp
L power:GND #PWR033
U 1 1 5EEDEEB4
P 8750 1400
F 0 "#PWR033" H 8750 1150 50  0001 C CNN
F 1 "GND" H 8755 1227 50  0000 C CNN
F 2 "" H 8750 1400 50  0001 C CNN
F 3 "" H 8750 1400 50  0001 C CNN
	1    8750 1400
	1    0    0    -1  
$EndComp
$Comp
L Device:C C15
U 1 1 5F499697
P 9000 1400
F 0 "C15" V 9050 1200 50  0000 L CNN
F 1 "10uF" V 9150 1300 50  0000 L CNN
F 2 "Capacitor_SMD:C_0805_2012Metric" H 9038 1250 50  0001 C CNN
F 3 "~" H 9000 1400 50  0001 C CNN
	1    9000 1400
	0    -1   -1   0   
$EndComp
Wire Wire Line
	9250 1800 9250 1550
Wire Wire Line
	9250 1550 9550 1550
Wire Wire Line
	9425 5650 9700 5650
Wire Wire Line
	9700 5400 9700 5650
Text GLabel 7500 6300 0    50   Input ~ 0
Vin_prox
Connection ~ 7900 6300
Wire Wire Line
	7900 6300 7900 6050
Wire Wire Line
	7800 6300 7900 6300
$Comp
L Device:C C11
U 1 1 601870EC
P 7650 6300
F 0 "C11" V 7425 6225 50  0000 L CNN
F 1 "100n" V 7500 6200 50  0000 L CNN
F 2 "Capacitor_SMD:C_0805_2012Metric" H 7688 6150 50  0001 C CNN
F 3 "~" H 7650 6300 50  0001 C CNN
	1    7650 6300
	0    1    1    0   
$EndComp
$Comp
L Device:R R9
U 1 1 5FC8B292
P 9400 5150
F 0 "R9" V 9300 5150 50  0000 C CNN
F 1 "150" V 9400 5150 50  0000 C CNN
F 2 "Resistor_SMD:R_0805_2012Metric" V 9330 5150 50  0001 C CNN
F 3 "~" H 9400 5150 50  0001 C CNN
	1    9400 5150
	0    1    1    0   
$EndComp
Text GLabel 8150 4650 0    50   Input ~ 0
LED
$Comp
L power:GND #PWR031
U 1 1 5FB4300A
P 9550 5300
F 0 "#PWR031" H 9550 5050 50  0001 C CNN
F 1 "GND" H 9555 5127 50  0000 C CNN
F 2 "" H 9550 5300 50  0001 C CNN
F 3 "" H 9550 5300 50  0001 C CNN
	1    9550 5300
	1    0    0    -1  
$EndComp
Text GLabel 7950 5300 2    50   Input ~ 0
Vin_prox
Connection ~ 7900 5300
Wire Wire Line
	7950 5300 7900 5300
Wire Wire Line
	7350 5650 7500 5650
$Comp
L Device:R R7
U 1 1 5F82FFA4
P 7200 5650
F 0 "R7" V 7100 5650 50  0000 C CNN
F 1 "4k7" V 7200 5650 50  0000 C CNN
F 2 "Resistor_SMD:R_0805_2012Metric" V 7130 5650 50  0001 C CNN
F 3 "~" H 7200 5650 50  0001 C CNN
	1    7200 5650
	0    1    1    0   
$EndComp
Text GLabel 7500 5850 0    50   Input ~ 0
Sensor
Wire Wire Line
	7900 5300 7900 5450
Wire Wire Line
	7800 5300 7900 5300
Wire Wire Line
	8400 5950 8800 5950
Connection ~ 8400 5950
Wire Wire Line
	8300 5950 8400 5950
Wire Wire Line
	8300 5850 8300 5950
Wire Wire Line
	8800 5650 8400 5650
Connection ~ 8800 5650
Wire Wire Line
	8400 5650 8300 5650
Connection ~ 8400 5650
$Comp
L Device:C Cs1
U 1 1 5F7B2A4F
P 8800 5800
F 0 "Cs1" H 8915 5846 50  0000 L CNN
F 1 "10nF" H 8915 5755 50  0000 L CNN
F 2 "Capacitor_SMD:C_0805_2012Metric" H 8838 5650 50  0001 C CNN
F 3 "~" H 8800 5800 50  0001 C CNN
	1    8800 5800
	1    0    0    -1  
$EndComp
$Comp
L power:GND #PWR025
U 1 1 5F7A3F92
P 7500 5300
F 0 "#PWR025" H 7500 5050 50  0001 C CNN
F 1 "GND" H 7505 5127 50  0000 C CNN
F 2 "" H 7500 5300 50  0001 C CNN
F 3 "" H 7500 5300 50  0001 C CNN
	1    7500 5300
	1    0    0    -1  
$EndComp
$Comp
L Device:C Cs2
U 1 1 5F783754
P 8400 5800
F 0 "Cs2" H 8515 5846 50  0000 L CNN
F 1 "22nF" H 8515 5755 50  0000 L CNN
F 2 "Capacitor_SMD:C_0805_2012Metric" H 8438 5650 50  0001 C CNN
F 3 "~" H 8400 5800 50  0001 C CNN
	1    8400 5800
	1    0    0    -1  
$EndComp
$Comp
L Device:C C10
U 1 1 5F7829D8
P 7650 5300
F 0 "C10" V 7400 5225 50  0000 L CNN
F 1 "10uF" V 7500 5200 50  0000 L CNN
F 2 "Capacitor_SMD:C_0805_2012Metric" H 7688 5150 50  0001 C CNN
F 3 "~" H 7650 5300 50  0001 C CNN
	1    7650 5300
	0    1    1    0   
$EndComp
$Comp
L power:GND #PWR027
U 1 1 5F771AA2
P 7900 6300
F 0 "#PWR027" H 7900 6050 50  0001 C CNN
F 1 "GND" H 7905 6127 50  0000 C CNN
F 2 "" H 7900 6300 50  0001 C CNN
F 3 "" H 7900 6300 50  0001 C CNN
	1    7900 6300
	1    0    0    -1  
$EndComp
$Comp
L Device:R R8
U 1 1 5F76A693
P 9275 5650
F 0 "R8" V 9175 5650 50  0000 C CNN
F 1 "4k7" V 9275 5650 50  0000 C CNN
F 2 "Resistor_SMD:R_0805_2012Metric" V 9205 5650 50  0001 C CNN
F 3 "~" H 9275 5650 50  0001 C CNN
	1    9275 5650
	0    1    1    0   
$EndComp
$Comp
L Sensor_Touch:AT42QT1010-TSHR U2
U 1 1 5F7677DD
P 7900 5750
F 0 "U2" H 8050 6000 50  0000 C CNN
F 1 "AT42QT1010-TSHR" H 8300 6075 50  0000 C CNN
F 2 "Package_TO_SOT_SMD:SOT-23-6" H 7950 5500 50  0001 L CNN
F 3 "http://ww1.microchip.com/downloads/en/DeviceDoc/40001946A.pdf" H 8170 6300 50  0001 C CNN
	1    7900 5750
	1    0    0    -1  
$EndComp
$Comp
L power:+5V #PWR032
U 1 1 5FB031F3
P 9700 5100
F 0 "#PWR032" H 9700 4950 50  0001 C CNN
F 1 "+5V" H 9715 5273 50  0000 C CNN
F 2 "" H 9700 5100 50  0001 C CNN
F 3 "" H 9700 5100 50  0001 C CNN
	1    9700 5100
	1    0    0    -1  
$EndComp
Wire Wire Line
	9700 5300 9550 5300
Text GLabel 3475 2375 0    50   Input ~ 0
Sensor
$Comp
L Device:R R5
U 1 1 5EF7A4C2
P 3625 2375
F 0 "R5" V 3525 2375 50  0000 C CNN
F 1 "47k" V 3625 2375 50  0000 C CNN
F 2 "Resistor_SMD:R_0805_2012Metric" V 3555 2375 50  0001 C CNN
F 3 "~" H 3625 2375 50  0001 C CNN
	1    3625 2375
	0    1    1    0   
$EndComp
$Comp
L power:GND #PWR021
U 1 1 5EF7A4CC
P 4225 2375
F 0 "#PWR021" H 4225 2125 50  0001 C CNN
F 1 "GND" H 4230 2202 50  0000 C CNN
F 2 "" H 4225 2375 50  0001 C CNN
F 3 "" H 4225 2375 50  0001 C CNN
	1    4225 2375
	1    0    0    -1  
$EndComp
$Comp
L Device:LED D5
U 1 1 5EF7A4D6
P 3925 2375
F 0 "D5" H 3918 2120 50  0000 C CNN
F 1 "green" H 3918 2211 50  0000 C CNN
F 2 "Diode_SMD:D_0805_2012Metric" H 3925 2375 50  0001 C CNN
F 3 "~" H 3925 2375 50  0001 C CNN
	1    3925 2375
	-1   0    0    1   
$EndComp
$Comp
L power:+12V #PWR035
U 1 1 5F0F146A
P 9800 1350
F 0 "#PWR035" H 9800 1200 50  0001 C CNN
F 1 "+12V" H 9815 1523 50  0000 C CNN
F 2 "" H 9800 1350 50  0001 C CNN
F 3 "" H 9800 1350 50  0001 C CNN
	1    9800 1350
	1    0    0    -1  
$EndComp
Wire Wire Line
	9800 1350 9800 1400
Wire Wire Line
	10300 1700 10300 2200
Text GLabel 4125 2875 2    50   Input ~ 0
M-
Wire Wire Line
	3375 2875 3475 2875
Wire Wire Line
	4125 2875 4075 2875
Wire Wire Line
	4225 1825 4075 1825
Wire Wire Line
	4225 2375 4075 2375
$Comp
L power:+5V #PWR015
U 1 1 5F34E265
P 3375 1275
F 0 "#PWR015" H 3375 1125 50  0001 C CNN
F 1 "+5V" H 3390 1448 50  0000 C CNN
F 2 "" H 3375 1275 50  0001 C CNN
F 3 "" H 3375 1275 50  0001 C CNN
	1    3375 1275
	1    0    0    -1  
$EndComp
Wire Wire Line
	3475 1275 3375 1275
$Comp
L Connector:Screw_Terminal_01x04 J3
U 1 1 5EEE8F66
P 9900 5200
F 0 "J3" H 9980 5192 50  0000 L CNN
F 1 "1x4 5.08mm" H 9980 5101 50  0000 L CNN
F 2 "digikey-footprints:Term_Block_1x4_P5.08mm" H 9900 5200 50  0001 C CNN
F 3 "~" H 9900 5200 50  0001 C CNN
	1    9900 5200
	1    0    0    -1  
$EndComp
Text Notes 4075 1125 0    50   ~ 0
PWR OK\n
Text Notes 4075 2725 0    50   ~ 0
Pump
Text Notes 4075 2225 0    50   ~ 0
Sensor
Text Notes 4075 1675 0    50   ~ 0
Status\n
Wire Wire Line
	7000 5650 7050 5650
Text Notes 8400 5600 0    50   ~ 0
Typical 2-50nF
Text Notes 5250 6850 0    50   ~ 0
Plated mounting holes\n
Text Notes 8400 1100 0    50   ~ 0
Using series arrangement for improved reliability,\ndue to bad reputation of high capacitance MLCC caps\n
Text Notes 1625 1525 0    50   ~ 0
Electrolytic input cap \nfor lower inrush current\n& overshoot per LT AN88
Text GLabel 800  1025 0    50   Input ~ 0
DC_in
$Comp
L Device:LED D4
U 1 1 5FE87139
P 3925 1825
F 0 "D4" H 3918 1570 50  0000 C CNN
F 1 "green" H 3918 1661 50  0000 C CNN
F 2 "Diode_SMD:D_0805_2012Metric" H 3925 1825 50  0001 C CNN
F 3 "~" H 3925 1825 50  0001 C CNN
	1    3925 1825
	-1   0    0    1   
$EndComp
$Comp
L Device:R R4
U 1 1 5FE66A89
P 3625 1825
F 0 "R4" V 3525 1825 50  0000 C CNN
F 1 "47k" V 3625 1825 50  0000 C CNN
F 2 "Resistor_SMD:R_0805_2012Metric" V 3555 1825 50  0001 C CNN
F 3 "~" H 3625 1825 50  0001 C CNN
	1    3625 1825
	0    1    1    0   
$EndComp
$Comp
L Device:LED D3
U 1 1 5EA5E95A
P 3925 1275
F 0 "D3" H 3918 1020 50  0000 C CNN
F 1 "green" H 3918 1111 50  0000 C CNN
F 2 "Diode_SMD:D_0805_2012Metric" H 3925 1275 50  0001 C CNN
F 3 "~" H 3925 1275 50  0001 C CNN
	1    3925 1275
	-1   0    0    1   
$EndComp
$Comp
L Device:R R3
U 1 1 5EA5F1AB
P 3625 1275
F 0 "R3" V 3525 1275 50  0000 C CNN
F 1 "100k" V 3625 1275 50  0000 C CNN
F 2 "Resistor_SMD:R_0805_2012Metric" V 3555 1275 50  0001 C CNN
F 3 "~" H 3625 1275 50  0001 C CNN
	1    3625 1275
	0    1    1    0   
$EndComp
Wire Notes Line
	10000 2100 10250 2100
Wire Notes Line
	10250 2100 10250 1800
Wire Notes Line
	10250 1800 9600 1800
Wire Notes Line
	9600 1800 9600 2300
Wire Notes Line
	9600 2300 10000 2300
Wire Notes Line
	10000 2100 10000 2300
Wire Wire Line
	3375 1825 3475 1825
Connection ~ 2075 4050
Connection ~ 1025 3950
Connection ~ 1675 4350
Connection ~ 1025 4550
Wire Wire Line
	1675 4550 1675 4350
Wire Wire Line
	1025 4550 1675 4550
Wire Wire Line
	1375 3950 1375 4050
Wire Wire Line
	1025 3950 1375 3950
$Comp
L Device:C C2
U 1 1 5F1904EB
P 1025 4400
F 0 "C2" H 1140 4446 50  0000 L CNN
F 1 "10uF" H 1140 4355 50  0000 L CNN
F 2 "Capacitor_SMD:C_0805_2012Metric" H 1063 4250 50  0001 C CNN
F 3 "~" H 1025 4400 50  0001 C CNN
	1    1025 4400
	1    0    0    -1  
$EndComp
$Comp
L Device:R R1
U 1 1 5F1DEFF7
P 1425 5475
F 0 "R1" V 1525 5475 50  0000 C CNN
F 1 "150" V 1425 5475 50  0000 C CNN
F 2 "Resistor_SMD:R_0805_2012Metric" V 1355 5475 50  0001 C CNN
F 3 "~" H 1425 5475 50  0001 C CNN
	1    1425 5475
	-1   0    0    1   
$EndComp
$Comp
L Device:R R2
U 1 1 5F29D5EA
P 2475 6750
F 0 "R2" V 2575 6750 50  0000 C CNN
F 1 "150" V 2475 6750 50  0000 C CNN
F 2 "Resistor_SMD:R_0805_2012Metric" V 2405 6750 50  0001 C CNN
F 3 "~" H 2475 6750 50  0001 C CNN
	1    2475 6750
	-1   0    0    1   
$EndComp
$Comp
L Device:C C1
U 1 1 5FC09F91
P 1025 4100
F 0 "C1" H 1140 4146 50  0000 L CNN
F 1 "10uF" H 1140 4055 50  0000 L CNN
F 2 "Capacitor_SMD:C_0805_2012Metric" H 1063 3950 50  0001 C CNN
F 3 "~" H 1025 4100 50  0001 C CNN
	1    1025 4100
	1    0    0    -1  
$EndComp
$Comp
L Device:C C6
U 1 1 5F6B0DB4
P 2350 5625
F 0 "C6" H 2465 5671 50  0000 L CNN
F 1 "10uF" H 2465 5580 50  0000 L CNN
F 2 "Capacitor_SMD:C_0805_2012Metric" H 2388 5475 50  0001 C CNN
F 3 "~" H 2350 5625 50  0001 C CNN
	1    2350 5625
	1    0    0    -1  
$EndComp
$Comp
L Device:C C7
U 1 1 5F6B0699
P 3525 6900
F 0 "C7" H 3640 6946 50  0000 L CNN
F 1 "10uF" H 3640 6855 50  0000 L CNN
F 2 "Capacitor_SMD:C_0805_2012Metric" H 3563 6750 50  0001 C CNN
F 3 "~" H 3525 6900 50  0001 C CNN
	1    3525 6900
	1    0    0    -1  
$EndComp
$Comp
L power:GND #PWR07
U 1 1 5F29D613
P 2475 7225
F 0 "#PWR07" H 2475 6975 50  0001 C CNN
F 1 "GND" H 2480 7052 50  0000 C CNN
F 2 "" H 2475 7225 50  0001 C CNN
F 3 "" H 2475 7225 50  0001 C CNN
	1    2475 7225
	1    0    0    -1  
$EndComp
Connection ~ 2475 6900
Wire Wire Line
	2475 6925 2475 6900
Wire Wire Line
	2925 6900 2475 6900
Wire Wire Line
	2475 6600 2725 6600
$Comp
L Device:C C5
U 1 1 5F29D5E0
P 2475 7075
F 0 "C5" H 2590 7121 50  0000 L CNN
F 1 "10uF" H 2590 7030 50  0000 L CNN
F 2 "Capacitor_SMD:C_0805_2012Metric" H 2513 6925 50  0001 C CNN
F 3 "~" H 2475 7075 50  0001 C CNN
	1    2475 7075
	1    0    0    -1  
$EndComp
$Comp
L dk_Transistors-Bipolar-BJT-Single:MMBT3904-7-F Q2
U 1 1 5F29D5D5
P 2925 6700
F 0 "Q2" V 3272 6700 60  0000 C CNN
F 1 "MMBT3904" V 3166 6700 60  0000 C CNN
F 2 "Package_TO_SOT_SMD:SOT-23" H 3125 6900 60  0001 L CNN
F 3 "https://www.diodes.com/assets/Datasheets/ds30036.pdf" H 3125 7000 60  0001 L CNN
F 4 "MMBT3904-FDICT-ND" H 3125 7100 60  0001 L CNN "Digi-Key_PN"
F 5 "MMBT3904-7-F" H 3125 7200 60  0001 L CNN "MPN"
F 6 "Discrete Semiconductor Products" H 3125 7300 60  0001 L CNN "Category"
F 7 "Transistors - Bipolar (BJT) - Single" H 3125 7400 60  0001 L CNN "Family"
F 8 "https://www.diodes.com/assets/Datasheets/ds30036.pdf" H 3125 7500 60  0001 L CNN "DK_Datasheet_Link"
F 9 "/product-detail/en/diodes-incorporated/MMBT3904-7-F/MMBT3904-FDICT-ND/815727" H 3125 7600 60  0001 L CNN "DK_Detail_Page"
F 10 "TRANS NPN 40V 0.2A SMD SOT23-3" H 3125 7700 60  0001 L CNN "Description"
F 11 "Diodes Incorporated" H 3125 7800 60  0001 L CNN "Manufacturer"
F 12 "Active" H 3125 7900 60  0001 L CNN "Status"
	1    2925 6700
	0    -1   -1   0   
$EndComp
Connection ~ 1425 5950
$Comp
L power:GND #PWR06
U 1 1 5F27BCA5
P 1425 5950
F 0 "#PWR06" H 1425 5700 50  0001 C CNN
F 1 "GND" H 1430 5777 50  0000 C CNN
F 2 "" H 1425 5950 50  0001 C CNN
F 3 "" H 1425 5950 50  0001 C CNN
	1    1425 5950
	1    0    0    -1  
$EndComp
$Comp
L power:+5V #PWR01
U 1 1 5F232838
P 1200 5325
F 0 "#PWR01" H 1200 5175 50  0001 C CNN
F 1 "+5V" H 1215 5498 50  0000 C CNN
F 2 "" H 1200 5325 50  0001 C CNN
F 3 "" H 1200 5325 50  0001 C CNN
	1    1200 5325
	1    0    0    -1  
$EndComp
Connection ~ 1425 5625
Wire Wire Line
	1425 5650 1425 5625
Wire Wire Line
	1775 5625 1425 5625
Wire Wire Line
	1425 5325 1575 5325
$Comp
L Device:C C4
U 1 1 5F16DC5B
P 1425 5800
F 0 "C4" H 1540 5846 50  0000 L CNN
F 1 "10uF" H 1540 5755 50  0000 L CNN
F 2 "Capacitor_SMD:C_0805_2012Metric" H 1463 5650 50  0001 C CNN
F 3 "~" H 1425 5800 50  0001 C CNN
	1    1425 5800
	1    0    0    -1  
$EndComp
Text GLabel 2900 5325 2    50   Input ~ 0
Vin_MCU
$Comp
L dk_Transistors-Bipolar-BJT-Single:MMBT3904-7-F Q1
U 1 1 5F14997C
P 1775 5425
F 0 "Q1" V 2122 5425 60  0000 C CNN
F 1 "MMBT3904" V 2016 5425 60  0000 C CNN
F 2 "Package_TO_SOT_SMD:SOT-23" H 1975 5625 60  0001 L CNN
F 3 "https://www.diodes.com/assets/Datasheets/ds30036.pdf" H 1975 5725 60  0001 L CNN
F 4 "MMBT3904-FDICT-ND" H 1975 5825 60  0001 L CNN "Digi-Key_PN"
F 5 "MMBT3904-7-F" H 1975 5925 60  0001 L CNN "MPN"
F 6 "Discrete Semiconductor Products" H 1975 6025 60  0001 L CNN "Category"
F 7 "Transistors - Bipolar (BJT) - Single" H 1975 6125 60  0001 L CNN "Family"
F 8 "https://www.diodes.com/assets/Datasheets/ds30036.pdf" H 1975 6225 60  0001 L CNN "DK_Datasheet_Link"
F 9 "/product-detail/en/diodes-incorporated/MMBT3904-7-F/MMBT3904-FDICT-ND/815727" H 1975 6325 60  0001 L CNN "DK_Detail_Page"
F 10 "TRANS NPN 40V 0.2A SMD SOT23-3" H 1975 6425 60  0001 L CNN "Description"
F 11 "Diodes Incorporated" H 1975 6525 60  0001 L CNN "Manufacturer"
F 12 "Active" H 1975 6625 60  0001 L CNN "Status"
	1    1775 5425
	0    -1   -1   0   
$EndComp
Text GLabel 4050 6600 2    50   Input ~ 0
Vin_prox
$Comp
L Device:C C9
U 1 1 5EB3C26D
P 2075 4200
F 0 "C9" H 2190 4246 50  0000 L CNN
F 1 "100n" H 2190 4155 50  0000 L CNN
F 2 "Capacitor_SMD:C_0805_2012Metric" H 2113 4050 50  0001 C CNN
F 3 "~" H 2075 4200 50  0001 C CNN
	1    2075 4200
	1    0    0    -1  
$EndComp
$Comp
L power:GND #PWR04
U 1 1 5EA6E67E
P 1025 4550
F 0 "#PWR04" H 1025 4300 50  0001 C CNN
F 1 "GND" H 1030 4377 50  0000 C CNN
F 2 "" H 1025 4550 50  0001 C CNN
F 3 "" H 1025 4550 50  0001 C CNN
	1    1025 4550
	1    0    0    -1  
$EndComp
Wire Wire Line
	2075 4350 1675 4350
Wire Wire Line
	1975 4050 2075 4050
$Comp
L power:+12V #PWR03
U 1 1 5EA6D77A
P 1025 3950
F 0 "#PWR03" H 1025 3800 50  0001 C CNN
F 1 "+12V" H 1040 4123 50  0000 C CNN
F 2 "" H 1025 3950 50  0001 C CNN
F 3 "" H 1025 3950 50  0001 C CNN
	1    1025 3950
	1    0    0    -1  
$EndComp
$Comp
L Regulator_Linear:L7805 U1
U 1 1 5EA68AB1
P 1675 4050
F 0 "U1" H 1675 4292 50  0000 C CNN
F 1 "7805" H 1675 4201 50  0000 C CNN
F 2 "Package_TO_SOT_SMD:TO-252-2" H 1700 3900 50  0001 L CIN
F 3 "http://www.st.com/content/ccc/resource/technical/document/datasheet/41/4f/b3/b0/12/d4/47/88/CD00000444.pdf/files/CD00000444.pdf/jcr:content/translations/en.CD00000444.pdf" H 1675 4000 50  0001 C CNN
	1    1675 4050
	1    0    0    -1  
$EndComp
Text Notes 3275 6500 0    50   ~ 0
QT1010 Datasheet\nhighly recommends\na dedicated Vreg
Text Notes 10025 4950 0    50   ~ 0
Either a single bare LED\nor WS2812B RGB module
Wire Notes Line
	9975 4750 9975 5000
Wire Notes Line
	9975 5000 11050 5000
Wire Notes Line
	11050 5000 11050 4750
Wire Notes Line
	11050 4750 9975 4750
Text Notes 9750 5650 0    50   ~ 0
To active sensing surface\n(pad or loop)
Text Notes 8350 6050 0    50   ~ 0
Cs must be determined empirically
Text Notes 10300 1600 0    50   ~ 0
Pump
Wire Notes Line
	10250 1500 10300 1500
Wire Notes Line
	10300 1500 10300 1600
Wire Notes Line
	10300 1600 10250 1600
Wire Notes Line
	9850 3300 9950 3300
Wire Notes Line
	9950 3300 9950 3400
Wire Notes Line
	9950 3400 9850 3400
Wire Notes Line
	9950 3350 10000 3350
Text Notes 10050 3400 0    50   ~ 0
External "priming"\nmomentary switch
Text Notes 9650 3775 0    50   ~ 0
(constant +12VDC)
Wire Notes Line
	9600 3625 9600 3750
Wire Notes Line
	9600 3750 9650 3750
Text GLabel 4950 4700 0    50   Input ~ 0
Vin_MCU
Wire Wire Line
	5300 4500 5300 4700
Wire Wire Line
	5000 4700 4950 4700
$Comp
L Connector:Screw_Terminal_01x02 J4
U 1 1 5EE66DDF
P 9750 3525
F 0 "J4" H 9830 3517 50  0000 L CNN
F 1 "1x2 5.08mm detachable" H 9830 3426 50  0000 L CNN
F 2 "digikey-footprints:Term_Block_1x2_P5.08MM" H 9750 3525 50  0001 C CNN
F 3 "~" H 9750 3525 50  0001 C CNN
	1    9750 3525
	1    0    0    -1  
$EndComp
$Comp
L Connector:Screw_Terminal_01x04 J2
U 1 1 5EE67453
P 9750 3200
F 0 "J2" H 9850 3375 50  0000 L CNN
F 1 "1x4 5.08mm" H 9825 3300 50  0000 L CNN
F 2 "digikey-footprints:Term_Block_1x4_P5.08mm" H 9750 3200 50  0001 C CNN
F 3 "~" H 9750 3200 50  0001 C CNN
	1    9750 3200
	1    0    0    -1  
$EndComp
Connection ~ 9550 3200
Text Notes 1650 2525 0    50   ~ 0
If a <5V pump is used,\nuse a 5V PSU and \nbypass the 7805 5Vreg
Text Notes 800  2525 0    50   ~ 0
If a (max.) >=2A \npump is used,\nbypass RPP/OCP
Text GLabel 975  2850 0    50   Input ~ 0
DC_in
$Comp
L power:+5V #PWR039
U 1 1 5F204408
P 2400 2825
F 0 "#PWR039" H 2400 2675 50  0001 C CNN
F 1 "+5V" H 2415 2998 50  0000 C CNN
F 2 "" H 2400 2825 50  0001 C CNN
F 3 "" H 2400 2825 50  0001 C CNN
	1    2400 2825
	1    0    0    -1  
$EndComp
Text Notes 1000 3075 0    50   ~ 0
RPP/OCP\nbypass
Text Notes 1975 3075 0    50   ~ 0
LDO\nBypass
Text Notes 6150 3650 0    50   ~ 0
1
Text Notes 6150 3550 0    50   ~ 0
0
Text Notes 6150 3750 0    50   ~ 0
2/A1
Text Notes 6150 3950 0    50   ~ 0
4/A2
Text Notes 6150 3850 0    50   ~ 0
3/A3
Text Notes 6150 4050 0    50   ~ 0
5/A0
Text GLabel 7325 3550 2    50   Input ~ 0
FET_M_PUMP
Text GLabel 7300 3750 2    50   Input ~ 0
POT_Duration
Text Notes 6225 3650 0    50   ~ 0
INT0
Text Notes 5675 3575 0    50   ~ 0
OC0A
Text Notes 5675 3675 0    50   ~ 0
OC0B
Wire Wire Line
	6150 3650 6900 3650
Wire Wire Line
	6150 3550 7325 3550
Wire Wire Line
	7325 3650 7200 3650
$Comp
L Device:R R11
U 1 1 5ECA8B5C
P 7050 3650
F 0 "R11" V 7000 3825 50  0000 C CNN
F 1 "4k7" V 7050 3650 50  0000 C CNN
F 2 "Resistor_SMD:R_0805_2012Metric" V 6980 3650 50  0001 C CNN
F 3 "~" H 7050 3650 50  0001 C CNN
	1    7050 3650
	0    1    1    0   
$EndComp
Text GLabel 6700 3950 2    50   Input ~ 0
LED
Wire Wire Line
	6700 3950 6150 3950
$Comp
L Device:C C12
U 1 1 60131AF4
P 5150 4700
F 0 "C12" V 4898 4700 50  0000 C CNN
F 1 "10uF" V 4989 4700 50  0000 C CNN
F 2 "Capacitor_SMD:C_0805_2012Metric" H 5188 4550 50  0001 C CNN
F 3 "~" H 5150 4700 50  0001 C CNN
	1    5150 4700
	0    1    1    0   
$EndComp
Wire Wire Line
	8800 5650 9125 5650
$Comp
L Device:C C8
U 1 1 5EDBBB57
P 2775 5625
F 0 "C8" H 2890 5671 50  0000 L CNN
F 1 "100n" H 2890 5580 50  0000 L CNN
F 2 "Capacitor_SMD:C_0805_2012Metric" H 2813 5475 50  0001 C CNN
F 3 "~" H 2775 5625 50  0001 C CNN
	1    2775 5625
	1    0    0    -1  
$EndComp
$Comp
L Device:C C18
U 1 1 5EDF3A07
P 3950 6900
F 0 "C18" H 4065 6946 50  0000 L CNN
F 1 "100n" H 4065 6855 50  0000 L CNN
F 2 "Capacitor_SMD:C_0805_2012Metric" H 3988 6750 50  0001 C CNN
F 3 "~" H 3950 6900 50  0001 C CNN
	1    3950 6900
	1    0    0    -1  
$EndComp
$Comp
L Device:R R13
U 1 1 5F1EB0E2
P 7050 3750
F 0 "R13" V 7000 3925 50  0000 C CNN
F 1 "4k7" V 7050 3750 50  0000 C CNN
F 2 "Resistor_SMD:R_0805_2012Metric" V 6980 3750 50  0001 C CNN
F 3 "~" H 7050 3750 50  0001 C CNN
	1    7050 3750
	0    1    1    0   
$EndComp
Wire Wire Line
	7200 3750 7300 3750
$Comp
L Device:R R19
U 1 1 5EDA4105
P 3300 6900
F 0 "R19" V 3200 6900 50  0000 C CNN
F 1 "1k" V 3300 6900 50  0000 C CNN
F 2 "Resistor_SMD:R_0805_2012Metric" V 3230 6900 50  0001 C CNN
F 3 "~" H 3300 6900 50  0001 C CNN
	1    3300 6900
	1    0    0    -1  
$EndComp
$Comp
L Device:R R18
U 1 1 5EDC9D39
P 2225 7075
F 0 "R18" V 2125 7075 50  0000 C CNN
F 1 "1k" V 2225 7075 50  0000 C CNN
F 2 "Resistor_SMD:R_0805_2012Metric" V 2155 7075 50  0001 C CNN
F 3 "~" H 2225 7075 50  0001 C CNN
	1    2225 7075
	1    0    0    -1  
$EndComp
Wire Wire Line
	3300 7050 3300 7225
Connection ~ 3300 7225
Wire Wire Line
	3125 6600 3300 6600
Wire Wire Line
	3300 6750 3300 6600
Connection ~ 3300 6600
Wire Wire Line
	2475 7225 2925 7225
Connection ~ 2475 7225
Wire Wire Line
	3300 7225 3525 7225
Wire Wire Line
	3300 6600 3525 6600
Wire Wire Line
	3525 6750 3525 6600
Connection ~ 3525 6600
Wire Wire Line
	3525 6600 3950 6600
Wire Wire Line
	3950 6750 3950 6600
Connection ~ 3950 6600
Wire Wire Line
	3950 6600 4050 6600
Wire Wire Line
	3950 7050 3950 7225
Wire Wire Line
	3525 7050 3525 7225
Connection ~ 3525 7225
Wire Wire Line
	3525 7225 3950 7225
Wire Wire Line
	1975 5325 2125 5325
Wire Wire Line
	2775 5475 2775 5325
Connection ~ 2775 5325
Wire Wire Line
	2775 5325 2900 5325
Wire Wire Line
	2350 5475 2350 5325
Connection ~ 2350 5325
Wire Wire Line
	2350 5325 2775 5325
Wire Wire Line
	2775 5950 2775 5775
Wire Wire Line
	1425 5950 2125 5950
Wire Wire Line
	2350 5775 2350 5950
Connection ~ 2350 5950
Wire Wire Line
	2350 5950 2775 5950
$Comp
L Device:R R17
U 1 1 5EE77754
P 2125 5625
F 0 "R17" V 2025 5625 50  0000 C CNN
F 1 "1k" V 2125 5625 50  0000 C CNN
F 2 "Resistor_SMD:R_0805_2012Metric" V 2055 5625 50  0001 C CNN
F 3 "~" H 2125 5625 50  0001 C CNN
	1    2125 5625
	1    0    0    -1  
$EndComp
Wire Wire Line
	2125 5475 2125 5325
Connection ~ 2125 5325
Wire Wire Line
	2125 5325 2350 5325
Wire Wire Line
	2125 5775 2125 5950
Connection ~ 2125 5950
Wire Wire Line
	2125 5950 2350 5950
$Comp
L Device:R R12
U 1 1 5EE8542D
P 1200 5800
F 0 "R12" V 1100 5800 50  0000 C CNN
F 1 "1k" V 1200 5800 50  0000 C CNN
F 2 "Resistor_SMD:R_0805_2012Metric" V 1130 5800 50  0001 C CNN
F 3 "~" H 1200 5800 50  0001 C CNN
	1    1200 5800
	1    0    0    -1  
$EndComp
Wire Wire Line
	1200 5625 1425 5625
Wire Notes Line
	600  2225 2600 2225
Wire Notes Line
	2600 2225 2600 3150
Wire Notes Line
	2600 3150 600  3150
Wire Notes Line
	600  3150 600  2225
Wire Wire Line
	1200 5650 1200 5625
Wire Wire Line
	2225 6925 2225 6900
Wire Wire Line
	2225 6900 2475 6900
Wire Wire Line
	2475 7225 2225 7225
Wire Wire Line
	1425 5950 1200 5950
Connection ~ 1425 5325
Connection ~ 2475 6600
Wire Wire Line
	1200 5325 1425 5325
$Comp
L dk_Transistors-Bipolar-BJT-Single:MMBT3904-7-F Q5
U 1 1 5EE50FD9
P 1650 7125
F 0 "Q5" V 1975 7100 60  0000 C CNN
F 1 "MMBT3904" V 1875 7100 60  0000 C CNN
F 2 "Package_TO_SOT_SMD:SOT-23" H 1850 7325 60  0001 L CNN
F 3 "https://www.diodes.com/assets/Datasheets/ds30036.pdf" H 1850 7425 60  0001 L CNN
F 4 "MMBT3904-FDICT-ND" H 1850 7525 60  0001 L CNN "Digi-Key_PN"
F 5 "MMBT3904-7-F" H 1850 7625 60  0001 L CNN "MPN"
F 6 "Discrete Semiconductor Products" H 1850 7725 60  0001 L CNN "Category"
F 7 "Transistors - Bipolar (BJT) - Single" H 1850 7825 60  0001 L CNN "Family"
F 8 "https://www.diodes.com/assets/Datasheets/ds30036.pdf" H 1850 7925 60  0001 L CNN "DK_Datasheet_Link"
F 9 "/product-detail/en/diodes-incorporated/MMBT3904-7-F/MMBT3904-FDICT-ND/815727" H 1850 8025 60  0001 L CNN "DK_Detail_Page"
F 10 "TRANS NPN 40V 0.2A SMD SOT23-3" H 1850 8125 60  0001 L CNN "Description"
F 11 "Diodes Incorporated" H 1850 8225 60  0001 L CNN "Manufacturer"
F 12 "Active" H 1850 8325 60  0001 L CNN "Status"
	1    1650 7125
	1    0    0    -1  
$EndComp
$Comp
L Device:R R15
U 1 1 5EE7D865
P 1275 7125
F 0 "R15" V 1175 7125 50  0000 C CNN
F 1 "1k" V 1275 7125 50  0000 C CNN
F 2 "Resistor_SMD:R_0805_2012Metric" V 1205 7125 50  0001 C CNN
F 3 "~" H 1275 7125 50  0001 C CNN
	1    1275 7125
	0    1    1    0   
$EndComp
$Comp
L power:GND #PWR02
U 1 1 5EEF3F0B
P 1750 7500
F 0 "#PWR02" H 1750 7250 50  0001 C CNN
F 1 "GND" H 1755 7327 50  0000 C CNN
F 2 "" H 1750 7500 50  0001 C CNN
F 3 "" H 1750 7500 50  0001 C CNN
	1    1750 7500
	1    0    0    -1  
$EndComp
$Comp
L Device:C C20
U 1 1 5EF114E3
P 2925 7075
F 0 "C20" H 3040 7121 50  0000 L CNN
F 1 "100nF" H 3040 7030 50  0000 L CNN
F 2 "Capacitor_SMD:C_0805_2012Metric" H 2963 6925 50  0001 C CNN
F 3 "~" H 2925 7075 50  0001 C CNN
	1    2925 7075
	1    0    0    -1  
$EndComp
Connection ~ 2925 7225
Wire Wire Line
	2925 7225 3300 7225
Wire Wire Line
	2925 6925 2925 6900
Connection ~ 2925 6900
Wire Wire Line
	1750 6925 1750 6900
Wire Wire Line
	1750 6900 2225 6900
Connection ~ 2225 6900
$Comp
L Device:R R16
U 1 1 5EF853B6
P 1450 7350
F 0 "R16" V 1350 7350 50  0000 C CNN
F 1 "47k" V 1450 7350 50  0000 C CNN
F 2 "Resistor_SMD:R_0805_2012Metric" V 1380 7350 50  0001 C CNN
F 3 "~" H 1450 7350 50  0001 C CNN
	1    1450 7350
	-1   0    0    1   
$EndComp
Wire Wire Line
	1450 7125 1425 7125
$Comp
L power:+5V #PWR09
U 1 1 5EFB7178
P 2475 6575
F 0 "#PWR09" H 2475 6425 50  0001 C CNN
F 1 "+5V" H 2490 6748 50  0000 C CNN
F 2 "" H 2475 6575 50  0001 C CNN
F 3 "" H 2475 6575 50  0001 C CNN
	1    2475 6575
	1    0    0    -1  
$EndComp
$Comp
L Device:CP C19
U 1 1 5EFF9A3D
P 2525 4200
F 0 "C19" H 2643 4246 50  0000 L CNN
F 1 "100uf" H 2643 4155 50  0000 L CNN
F 2 "Capacitor_SMD:CP_Elec_5x5.3" H 2563 4050 50  0001 C CNN
F 3 "~" H 2525 4200 50  0001 C CNN
	1    2525 4200
	1    0    0    -1  
$EndComp
Wire Wire Line
	2525 4350 2075 4350
Connection ~ 2075 4350
Wire Wire Line
	2525 4050 2075 4050
Connection ~ 2525 4050
$Comp
L Device:CP C3
U 1 1 5ED2211E
P 1500 1175
F 0 "C3" H 1618 1221 50  0000 L CNN
F 1 "100uf" H 1618 1130 50  0000 L CNN
F 2 "Capacitor_SMD:CP_Elec_5x5.3" H 1538 1025 50  0001 C CNN
F 3 "~" H 1500 1175 50  0001 C CNN
	1    1500 1175
	1    0    0    -1  
$EndComp
$Comp
L power:GND #PWR05
U 1 1 5F0A86FB
P 1500 1325
F 0 "#PWR05" H 1500 1075 50  0001 C CNN
F 1 "GND" H 1505 1152 50  0000 C CNN
F 2 "" H 1500 1325 50  0001 C CNN
F 3 "" H 1500 1325 50  0001 C CNN
	1    1500 1325
	1    0    0    -1  
$EndComp
$Comp
L power:+12V #PWR010
U 1 1 5EA6CF0A
P 1500 975
F 0 "#PWR010" H 1500 825 50  0001 C CNN
F 1 "+12V" H 1515 1148 50  0000 C CNN
F 2 "" H 1500 975 50  0001 C CNN
F 3 "" H 1500 975 50  0001 C CNN
	1    1500 975 
	1    0    0    -1  
$EndComp
Text Notes 875  850  0    50   ~ 0
RPP and\nkinda OCP\n
Wire Wire Line
	1300 1025 1500 1025
Wire Wire Line
	1300 1025 1200 1025
Connection ~ 1300 1025
Wire Wire Line
	1300 1325 1300 1025
Wire Wire Line
	800  1025 850  1025
Wire Wire Line
	900  1025 850  1025
Connection ~ 850  1025
Wire Wire Line
	850  1325 850  1025
Wire Wire Line
	900  1325 850  1325
Wire Wire Line
	1200 1325 1300 1325
$Comp
L Device:D D1
U 1 1 5ECC856C
P 1050 1025
F 0 "D1" H 975 925 50  0000 C CNN
F 1 "M7" H 1125 925 50  0000 C CNN
F 2 "Diode_SMD:D_SMA" H 1050 1025 50  0001 C CNN
F 3 "~" H 1050 1025 50  0001 C CNN
	1    1050 1025
	-1   0    0    1   
$EndComp
$Comp
L Device:D D2
U 1 1 5ED0D263
P 1050 1325
F 0 "D2" H 975 1225 50  0000 C CNN
F 1 "M7" H 1125 1225 50  0000 C CNN
F 2 "Diode_SMD:D_SMA" H 1050 1325 50  0001 C CNN
F 3 "~" H 1050 1325 50  0001 C CNN
	1    1050 1325
	-1   0    0    1   
$EndComp
Wire Wire Line
	1500 975  1500 1025
Connection ~ 1500 1025
$Comp
L Jumper:SolderJumper_2_Open JP1
U 1 1 5F10DE3E
P 1175 2850
F 0 "JP1" H 1175 3055 50  0000 C CNN
F 1 "RPP" H 1175 2964 50  0000 C CNN
F 2 "Jumper:SolderJumper-2_P1.3mm_Open_RoundedPad1.0x1.5mm" H 1175 2850 50  0001 C CNN
F 3 "~" H 1175 2850 50  0001 C CNN
	1    1175 2850
	1    0    0    -1  
$EndComp
$Comp
L power:+12V #PWR037
U 1 1 5F2037A0
P 1600 2825
F 0 "#PWR037" H 1600 2675 50  0001 C CNN
F 1 "+12V" H 1615 2998 50  0000 C CNN
F 2 "" H 1600 2825 50  0001 C CNN
F 3 "" H 1600 2825 50  0001 C CNN
	1    1600 2825
	1    0    0    -1  
$EndComp
$Comp
L Jumper:SolderJumper_2_Open JP2
U 1 1 5F135FA5
P 2075 2850
F 0 "JP2" H 2075 3055 50  0000 C CNN
F 1 "LDO" H 2075 2964 50  0000 C CNN
F 2 "Jumper:SolderJumper-2_P1.3mm_Open_RoundedPad1.0x1.5mm" H 2075 2850 50  0001 C CNN
F 3 "~" H 2075 2850 50  0001 C CNN
	1    2075 2850
	1    0    0    -1  
$EndComp
Wire Wire Line
	2225 2850 2400 2850
Wire Wire Line
	2400 2850 2400 2825
Wire Wire Line
	975  2850 1025 2850
Wire Wire Line
	1600 2825 1600 2850
Wire Wire Line
	1600 2850 1925 2850
Wire Wire Line
	1600 2850 1325 2850
Connection ~ 1600 2850
$Comp
L dk_Transistors-Bipolar-BJT-Single:MMBT3904-7-F Q6
U 1 1 5F275CFD
P 8650 4650
F 0 "Q6" V 8975 4600 60  0000 C CNN
F 1 "MMBT3904" V 8875 4600 60  0000 C CNN
F 2 "Package_TO_SOT_SMD:SOT-23" H 8850 4850 60  0001 L CNN
F 3 "https://www.diodes.com/assets/Datasheets/ds30036.pdf" H 8850 4950 60  0001 L CNN
F 4 "MMBT3904-FDICT-ND" H 8850 5050 60  0001 L CNN "Digi-Key_PN"
F 5 "MMBT3904-7-F" H 8850 5150 60  0001 L CNN "MPN"
F 6 "Discrete Semiconductor Products" H 8850 5250 60  0001 L CNN "Category"
F 7 "Transistors - Bipolar (BJT) - Single" H 8850 5350 60  0001 L CNN "Family"
F 8 "https://www.diodes.com/assets/Datasheets/ds30036.pdf" H 8850 5450 60  0001 L CNN "DK_Datasheet_Link"
F 9 "/product-detail/en/diodes-incorporated/MMBT3904-7-F/MMBT3904-FDICT-ND/815727" H 8850 5550 60  0001 L CNN "DK_Detail_Page"
F 10 "TRANS NPN 40V 0.2A SMD SOT23-3" H 8850 5650 60  0001 L CNN "Description"
F 11 "Diodes Incorporated" H 8850 5750 60  0001 L CNN "Manufacturer"
F 12 "Active" H 8850 5850 60  0001 L CNN "Status"
	1    8650 4650
	1    0    0    -1  
$EndComp
$Comp
L Device:R R21
U 1 1 5F2F2FE0
P 8300 4650
F 0 "R21" V 8200 4650 50  0000 C CNN
F 1 "1k" V 8300 4650 50  0000 C CNN
F 2 "Resistor_SMD:R_0805_2012Metric" V 8230 4650 50  0001 C CNN
F 3 "~" H 8300 4650 50  0001 C CNN
	1    8300 4650
	0    1    1    0   
$EndComp
Wire Wire Line
	9550 3400 9550 3525
Wire Wire Line
	9525 3525 9550 3525
Connection ~ 9550 3525
Wire Wire Line
	9525 3625 9550 3625
$Comp
L Jumper:SolderJumper_2_Open JP3
U 1 1 5F3823C9
P 9400 4925
F 0 "JP3" H 9400 5100 50  0000 C CNN
F 1 "LED" H 9400 5025 50  0000 C CNN
F 2 "Jumper:SolderJumper-2_P1.3mm_Open_RoundedPad1.0x1.5mm" H 9400 4925 50  0001 C CNN
F 3 "~" H 9400 4925 50  0001 C CNN
	1    9400 4925
	1    0    0    -1  
$EndComp
Wire Wire Line
	9550 4925 9550 5150
Wire Wire Line
	9250 5150 9250 4925
Connection ~ 9250 4925
Wire Wire Line
	9700 5200 9550 5200
Wire Wire Line
	9550 5200 9550 5150
Connection ~ 9550 5150
Wire Wire Line
	9250 4425 8750 4425
Wire Wire Line
	8750 4425 8750 4450
Wire Wire Line
	9250 4425 9250 4925
Wire Wire Line
	2475 6575 2475 6600
Wire Wire Line
	1450 7200 1450 7125
Connection ~ 1450 7125
Wire Wire Line
	1750 7500 1450 7500
Wire Wire Line
	1750 7500 1750 7325
Connection ~ 1750 7500
$Comp
L Device:R R22
U 1 1 5F5127AC
P 8750 4275
F 0 "R22" V 8650 4275 50  0000 C CNN
F 1 "1k" V 8750 4275 50  0000 C CNN
F 2 "Resistor_SMD:R_0805_2012Metric" V 8680 4275 50  0001 C CNN
F 3 "~" H 8750 4275 50  0001 C CNN
	1    8750 4275
	-1   0    0    1   
$EndComp
Connection ~ 8750 4425
$Comp
L power:+5V #PWR011
U 1 1 5F513C6F
P 8750 4050
F 0 "#PWR011" H 8750 3900 50  0001 C CNN
F 1 "+5V" H 8765 4223 50  0000 C CNN
F 2 "" H 8750 4050 50  0001 C CNN
F 3 "" H 8750 4050 50  0001 C CNN
	1    8750 4050
	1    0    0    -1  
$EndComp
$Comp
L Device:R R20
U 1 1 5F628C6A
P 7200 5425
F 0 "R20" V 7100 5425 50  0000 C CNN
F 1 "DNP" V 7200 5425 50  0000 C CNN
F 2 "Resistor_SMD:R_0805_2012Metric" V 7130 5425 50  0001 C CNN
F 3 "~" H 7200 5425 50  0001 C CNN
	1    7200 5425
	0    1    1    0   
$EndComp
Wire Wire Line
	7350 5425 7350 5650
Connection ~ 7350 5650
Text GLabel 7050 5425 0    50   Input ~ 0
Vin_prox
Text Notes 6700 5275 0    50   ~ 0
high = fast mode
$Comp
L power:GND #PWR034
U 1 1 5F44B7B8
P 8750 4850
F 0 "#PWR034" H 8750 4600 50  0001 C CNN
F 1 "GND" H 8750 4700 50  0000 C CNN
F 2 "" H 8750 4850 50  0001 C CNN
F 3 "" H 8750 4850 50  0001 C CNN
	1    8750 4850
	1    0    0    -1  
$EndComp
$Comp
L Device:C C21
U 1 1 5F71BF56
P 9400 4425
F 0 "C21" V 9175 4350 50  0000 L CNN
F 1 "22n" V 9250 4325 50  0000 L CNN
F 2 "Capacitor_SMD:C_0805_2012Metric" H 9438 4275 50  0001 C CNN
F 3 "~" H 9400 4425 50  0001 C CNN
	1    9400 4425
	0    1    1    0   
$EndComp
Wire Wire Line
	8750 4050 8750 4125
Connection ~ 9250 4425
$Comp
L power:GND #PWR040
U 1 1 5F7AA8CB
P 9550 4425
F 0 "#PWR040" H 9550 4175 50  0001 C CNN
F 1 "GND" H 9550 4275 50  0000 C CNN
F 2 "" H 9550 4425 50  0001 C CNN
F 3 "" H 9550 4425 50  0001 C CNN
	1    9550 4425
	1    0    0    -1  
$EndComp
Text Notes 9250 4150 0    50   ~ 0
Cswamp
$Comp
L vegii:R_POT_Small_Cha RV1
U 1 1 5EE7393F
P 3875 5575
F 0 "RV1" H 3700 5625 50  0000 R CNN
F 1 "100k" H 3725 5525 50  0000 R CNN
F 2 "vegii:POT_R9011-1" H 3875 5575 50  0001 C CNN
F 3 "~" H 3875 5575 50  0001 C CNN
	1    3875 5575
	1    0    0    -1  
$EndComp
Wire Wire Line
	3875 5675 3875 5700
Wire Wire Line
	3975 5575 4025 5575
Wire Wire Line
	3875 5400 3875 5475
Wire Wire Line
	3800 5675 3800 5700
Wire Wire Line
	3800 5700 3875 5700
Connection ~ 3875 5700
Wire Wire Line
	3875 5700 3875 5725
$Comp
L power:GND #PWR0101
U 1 1 5EF7DE8F
P 6200 7200
F 0 "#PWR0101" H 6200 6950 50  0001 C CNN
F 1 "GND" H 6205 7027 50  0000 C CNN
F 2 "" H 6200 7200 50  0001 C CNN
F 3 "" H 6200 7200 50  0001 C CNN
	1    6200 7200
	1    0    0    -1  
$EndComp
$Comp
L Mechanical:MountingHole_Pad LOGO1
U 1 1 5EF7DE99
P 6200 7100
F 0 "LOGO1" H 6150 7300 50  0000 L CNN
F 1 "MountingHole_Pad" H 6300 7550 50  0001 L CNN
F 2 "vegii:4swiss_logo_inverted_6mm" H 6200 7100 50  0001 C CNN
F 3 "~" H 6200 7100 50  0001 C CNN
	1    6200 7100
	1    0    0    -1  
$EndComp
$EndSCHEMATC
